{
  "name": "prakash-portfolio",
  "version": "1.0.0",
  "description": "",
  "main": "index.js",
  "dependencies": {
    "express": "^4.17.1",
    "nodemon": "^2.0.3"
  },
  "devDependencies": {},
  "scripts": {
    "start": "node index.js",
    "dev":
  },
  "repository": {
    "type": "git",
    "url": "git+https://jaiswal_prakash@bitbucket.org/jaiswal_prakash/prakash-portfolio.git"
  },
  "author": "",
  "license": "ISC",
  "homepage": "https://bitbucket.org/jaiswal_prakash/prakash-portfolio#readme"
}
